{
  "meteor": {
    "git": "https://github.com/meteor/meteor.git",
    "branch": "master"
  },
  "packages": {    
    "router": {},
    "accounts-ui-bootstrap-dropdown": {},
    "handlebar-helpers": {},    
    "bootboxjs": {}
  }
}
